<?xml version="1.0" encoding="UTF-8" standalone="no"?>
<svg xmlns="http://www.w3.org/2000/svg" height="480" width="640" viewBox="0 0 640 480" version="1">
  <defs>
    <clipPath id="a">
      <path fill-opacity=".67" d="M0 0h640v480H0z"/>
    </clipPath>
  </defs>
  <g fill-rule="evenodd" stroke-width="1pt" clip-path="url(#a)">
    <path fill="#e10011" d="M-32.5 0h720v480h-720z"/>
    <path d="M114.25 479.77L-32.5 480V0l146.06.075 94.242 30.306-93.554 29.542 93.554 30.458-93.554 29.542 93.554 30.458-93.554 29.54 93.554 30.46-93.554 29.54 93.554 30.46-93.554 29.54 93.554 30.46-93.554 29.54 93.554 30.46-93.554 29.54 93.554 30.46-93.554 29.54" fill="#fff"/>
  </g>
</svg>
