<?xml version="1.0" encoding="UTF-8" standalone="no"?>
<svg xmlns="http://www.w3.org/2000/svg" height="480" width="640" viewBox="0 0 640 480">
  <defs>
    <clipPath id="a">
      <path fill-opacity=".67" d="M-79.458 32h640v480h-640z"/>
    </clipPath>
  </defs>
  <g stroke-width="1pt" fill-rule="evenodd" clip-path="url(#a)" transform="translate(79.458 -32)">
    <path fill="#ff0" d="M-119.46 32h720v480h-720z"/>
    <path d="M-119.46 32v480l480-480h-480z" fill="#00ca00"/>
    <path d="M120.54 512h480V32l-480 480z" fill="red"/>
  </g>
</svg>
